{
 "autoname": "field:chat_id",
 "creation": "2020-10-16 09:52:00.453433",
 "doctype": "DocType",
 "editable_grid": 1,
 "engine": "InnoDB",
 "field_order": [
  "chat_id",
  "response"
 ],
 "fields": [
  {
   "fieldname": "chat_id",
   "fieldtype": "Data",
   "label": "Chat ID",
   "unique": 1
  },
  {
   "fieldname": "response",
   "fieldtype": "Small Text",
   "label": "Response"
  }
 ],
 "modified": "2020-10-16 10:57:13.407320",
 "modified_by": "Administrator",
 "module": "Erpnext Telegram Integration",
 "name": "Telegram Replies",
 "owner": "Administrator",
 "permissions": [
  {
   "create": 1,
   "delete": 1,
   "email": 1,
   "export": 1,
   "print": 1,
   "read": 1,
   "report": 1,
   "role": "System Manager",
   "share": 1,
   "write": 1
  }
 ],
 "sort_field": "modified",
 "sort_order": "DESC",
 "track_changes": 1
}